<svg enable-background="new 0 0 512 512" viewBox="0 0 512 512" xmlns="http://www.w3.org/2000/svg">
  <path
    d="m389.436 108.257c-16.274-60.241-72.916-104.076-138.983-100.564-67.31 3.578-123.031 57.695-128.424 124.884-5.993 74.655 48.588 138.155 119.793 146.53v57.053h32.065v-75.192c0-7.172-5.814-12.986-12.987-12.986h-.024c-56.048 0-104.343-42.984-107.103-98.965-2.949-59.838 44.878-109.457 104.082-109.457 57.464 0 104.211 46.746 104.211 104.211 18.546 0 32.207-17.608 27.37-35.514z"
    fill="#000000" />
  <path
    d="m265.87 328.144h-16.032c-35.417 0-64.13 28.712-64.13 64.13v80.162h144.291v-80.162c0-35.418-28.712-64.13-64.129-64.13z"
    fill="#000000" />
  <path
    d="m297.934 448.387h-64.13c-4.427 0-8.016-3.589-8.016-8.016v-48.098c0-31.303 22.441-57.331 52.105-62.965-3.899-.74-7.91-1.165-12.024-1.165h-16.032c-35.417 0-64.13 28.712-64.13 64.13v96.195h128.259v-24.048c.001-8.855-7.177-16.033-16.032-16.033z"
    fill="#000000" />
  <path
    d="m338.016 504.501h-160.324c-4.427 0-8.016-3.589-8.016-8.016v-16.032c0-4.427 3.589-8.016 8.016-8.016h160.325c4.427 0 8.016 3.589 8.016 8.016v16.032c-.001 4.426-3.59 8.016-8.017 8.016z"
    fill="#000000" />
  <path
    d="m217.772 496.484v-16.032c0-4.427 3.589-8.016 8.016-8.016h-48.096c-4.427 0-8.016 3.589-8.016 8.016v16.032c0 4.427 3.589 8.016 8.016 8.016h48.097c-4.428.001-8.017-3.589-8.017-8.016z"
    fill="#000000" />
  <path
    d="m396.676 106.301c-8.421-31.171-27.458-58.967-53.606-78.268-26.708-19.715-59.75-29.601-93.016-27.83-34.375 1.827-67.141 16.281-92.261 40.699-25.131 24.429-40.488 56.774-43.242 91.074-3.029 37.738 8.567 74.5 32.652 103.51 22.319 26.883 53.055 44.518 87.116 50.133v36.734c-32.059 7.111-56.114 35.749-56.114 69.918v72.663h-.516c-8.556 0-15.516 6.96-15.516 15.516v16.032c0 8.556 6.96 15.517 15.516 15.517h160.325c8.556 0 15.516-6.961 15.516-15.517v-16.032c0-8.555-6.96-15.516-15.516-15.516h-.516v-72.663c0-34.168-24.054-62.807-56.114-69.918v-61.388c0-11.296-9.19-20.486-20.511-20.486-25.43 0-49.749-9.421-68.477-26.527-18.851-17.219-29.908-40.412-31.135-65.307-1.317-26.735 8.115-52.13 26.56-71.507 18.465-19.397 43.335-30.08 70.03-30.08 53.327 0 96.71 43.384 96.711 96.71 0 4.142 3.358 7.5 7.5 7.5 11.251 0 21.633-5.132 28.484-14.079 6.802-8.876 9.035-20.136 6.13-30.888zm-74.177 285.972v72.663h-8.529c-4.142 0-7.5 3.358-7.5 7.5s3.358 7.5 7.5 7.5h24.045c.285 0 .516.231.516.516v16.032c0 .285-.231.517-.516.517h-160.324c-.285 0-.516-.231-.516-.517v-16.032c0-.284.231-.516.516-.516h104.209c4.142 0 7.5-3.358 7.5-7.5s-3.358-7.5-7.5-7.5h-88.693v-72.663c0-31.225 25.404-56.63 56.63-56.63h16.032c31.226.001 56.63 25.405 56.63 56.63zm56.14-264.2c-2.473 3.229-5.734 5.605-9.414 6.945-4.477-57.525-52.719-102.957-111.371-102.957-30.841 0-59.571 12.337-80.895 34.738-21.304 22.38-32.199 51.711-30.677 82.587 1.423 28.873 14.208 55.737 36 75.644 21.498 19.637 49.409 30.452 78.618 30.452 3.025 0 5.486 2.461 5.486 5.486v59.689c-.173-.001-.343-.013-.516-.013h-16.032c-.173 0-.343.012-.516.013v-41.549c0-3.803-2.847-7.004-6.624-7.449-32.849-3.864-62.664-20.112-83.951-45.752-21.571-25.982-31.956-58.914-29.241-92.729 2.462-30.674 16.222-59.625 38.745-81.519 22.516-21.888 51.852-34.842 82.601-36.477 30.244-1.604 59.049 7.01 83.313 24.92 23.433 17.297 40.491 42.196 48.032 70.111 1.676 6.208.379 12.718-3.558 17.86z" />
  <path
    d="m258.37 360.209c0 4.142 3.358 7.5 7.5 7.5 13.545 0 24.565 11.02 24.565 24.564v16.033c0 4.142 3.358 7.5 7.5 7.5s7.5-3.358 7.5-7.5v-16.033c0-21.816-17.749-39.564-39.565-39.564-4.142 0-7.5 3.357-7.5 7.5z" />
</svg>
