<svg enable-background="new 0 0 511.998 511.998" viewBox="0 0 511.998 511.998"
  xmlns="http://www.w3.org/2000/svg">
  <path d="m271.998 176h-32v320c0 4.418 3.582 8 8 8h16c4.418 0 8-3.582 8-8z" fill="#000000" />
  <path d="m239.998 208h32v24h-32z" fill="#000000" />
  <path d="m271.998 424h32v48h-32z" fill="#000000" />
  <path
    d="m344.175 88.177h-1.238c-3.516-18.24-19.591-32.064-38.842-32.064-3.364 0-6.63.425-9.751 1.219.794-3.121 1.219-6.387 1.219-9.751 0-19.251-13.824-35.327-32.064-38.842v-1.239c0-4.142-3.358-7.5-7.5-7.5s-7.5 3.358-7.5 7.5v1.238c-18.241 3.516-32.064 19.591-32.064 38.842 0 3.364.425 6.63 1.219 9.751-3.121-.794-6.387-1.219-9.751-1.219-19.251 0-35.327 13.824-38.842 32.064h-1.238c-4.142 0-7.5 3.358-7.5 7.5s3.358 7.5 7.5 7.5h1.238c3.516 18.24 19.591 32.064 38.842 32.064 3.364 0 6.631-.425 9.751-1.219-.794 3.121-1.219 6.387-1.219 9.751 0 13.014 6.318 24.578 16.046 31.793-.003.091-.014.18-.014.272v24.564h-.516c-4.142 0-7.5 3.358-7.5 7.5s3.358 7.5 7.5 7.5h.516v281.081c0 8.556 6.96 15.516 15.516 15.516h16.032c8.556 0 15.516-6.96 15.516-15.516v-16.548h32.581c4.142 0 7.5-3.358 7.5-7.5s-3.358-7.5-7.5-7.5h-.516v-33.097h.516c4.142 0 7.5-3.358 7.5-7.5s-3.358-7.5-7.5-7.5h-32.581v-17.064h24.564c4.142 0 7.5-3.358 7.5-7.5s-3.358-7.5-7.5-7.5h-24.564v-147.648c0-4.142-3.358-7.5-7.5-7.5s-7.5 3.358-7.5 7.5v204.875c0 4.142 3.358 7.5 7.5 7.5s7.5-3.358 7.5-7.5v-10.161h17.064v33.097h-24.555c-.003 0-.006 0-.01 0-4.142 0-7.5 3.358-7.5 7.5v24.049c0 .285-.231.516-.516.516h-16.032c-.285 0-.516-.231-.516-.516v-281.082h32.581c4.142 0 7.5-3.358 7.5-7.5s-3.358-7.5-7.5-7.5h-.516v-24.564c0-.092-.01-.181-.014-.272 9.728-7.215 16.046-18.779 16.046-31.793 0-3.364-.425-6.631-1.219-9.751 3.121.794 6.387 1.219 9.751 1.219 19.251 0 35.327-13.824 38.842-32.064h1.238c4.142 0 7.5-3.358 7.5-7.5s-3.358-7.501-7.5-7.501zm-88.177-65.161c13.545 0 24.564 11.02 24.564 24.564s-11.019 24.565-24.564 24.565-24.564-11.02-24.564-24.564 11.019-24.565 24.564-24.565zm9.751 62.91c-.794 3.121-1.219 6.387-1.219 9.751s.425 6.63 1.219 9.751c-3.121-.794-6.387-1.219-9.751-1.219s-6.63.425-9.751 1.219c.794-3.121 1.219-6.387 1.219-9.751s-.425-6.63-1.219-9.751c3.121.794 6.387 1.219 9.751 1.219s6.63-.425 9.751-1.219zm-82.412 9.751c0-13.545 11.02-24.564 24.564-24.564s24.564 11.02 24.564 24.564-11.02 24.564-24.564 24.564-24.564-11.019-24.564-24.564zm81.193 104.726h-17.064v-18.001c2.75.607 5.603.937 8.532.937s5.782-.33 8.532-.937zm-8.532-32.064c-13.545 0-24.564-11.02-24.564-24.564s11.02-24.565 24.564-24.565 24.564 11.02 24.564 24.565-11.019 24.564-24.564 24.564zm48.097-48.097c-13.545 0-24.564-11.02-24.564-24.564s11.02-24.564 24.564-24.564 24.564 11.02 24.564 24.564-11.019 24.564-24.564 24.564z" />
</svg>
