<svg enable-background="new 0 0 512.001 512.001" viewBox="0 0 512.001 512.001"
  xmlns="http://www.w3.org/2000/svg">
  <path
    d="m456.403 119.726h-144.29v160.479c0 53.126 43.067 96.194 96.194 96.194s96.193-43.069 96.193-96.195v-112.381c0-26.564-21.534-48.097-48.097-48.097zm16.032 160.478c0 35.417-28.712 64.129-64.129 64.129s-64.129-28.712-64.129-64.129v-128.414h112.226c8.854 0 16.032 7.178 16.032 16.032z"
    fill="#000000" />
  <path
    d="m344.629 63.132c-.254-4.233-3.761-7.536-8.001-7.536h-289.514c-4.24 0-7.748 3.303-8.001 7.536l-23.087 384.776c-.276 4.608 3.386 8.497 8.002 8.497h335.686c4.616 0 8.278-3.889 8.002-8.497z"
    fill="#000000" />
  <path
    d="m119.732 456.404.388-16.224c.104-4.351 3.661-7.825 8.014-7.825h200.716c9.137 0 16.427-7.625 16.016-16.753l-.689-15.312h-223.273l5.727-224.649c.107-4.349 3.663-7.819 8.014-7.819h178.174c9.137 0 16.427-7.625 16.016-16.753l-.689-15.312h-200.73l1.788-72.626c.104-4.233 1.543-7.536 3.282-7.536h-85.372c-4.241 0-7.747 3.303-8.001 7.536l-23.087 384.777c-.276 4.608 3.386 8.496 8.002 8.496z"
    fill="#000000" />
  <path d="m89.124 55.597h-16.047l-17.485 400.807h16.047z" fill="#000000" />
  <path
    d="m368.226 408.306h-352.71c-4.427 0-8.016-3.589-8.016-8.016v-24.048c0-4.427 3.589-8.016 8.016-8.016h352.71c4.427 0 8.016 3.589 8.016 8.016v24.048c0 4.427-3.589 8.016-8.016 8.016z"
    fill="#000000" />
  <path
    d="m352.194 143.775h-320.646c-4.427 0-8.016-3.589-8.016-8.016v-24.049c0-4.427 3.589-8.016 8.016-8.016h320.645c4.427 0 8.016 3.589 8.016 8.016v24.048c.001 4.427-3.588 8.017-8.015 8.017z"
    fill="#000000" />
  <path
    d="m111.71 400.29v-24.048c0-4.427 3.589-8.016 8.016-8.016h-104.21c-4.427 0-8.016 3.589-8.016 8.016v24.048c0 4.427 3.589 8.016 8.016 8.016h104.21c-4.428 0-8.016-3.589-8.016-8.016z"
    fill="#000000" />
  <path
    d="m119.726 135.758v-24.048c0-4.427 3.589-8.016 8.016-8.016h-96.194c-4.427 0-8.016 3.589-8.016 8.016v24.048c0 4.427 3.589 8.016 8.016 8.016h96.194c-4.427.001-8.016-3.589-8.016-8.016z"
    fill="#000000" />
  <path
    d="m456.403 112.226h-88.694v-.516c0-7.897-5.934-14.421-13.575-15.381l-2.019-33.645c-.49-8.18-7.293-14.587-15.488-14.587h-289.513c-8.194 0-14.998 6.407-15.488 14.587l-2.019 33.645c-7.641.96-13.575 7.484-13.575 15.381v24.049c0 6.736 4.322 12.467 10.333 14.607l-12.628 210.47c-7.72.886-13.737 7.453-13.737 15.406v24.049c0 6.795 4.397 12.569 10.49 14.664l-1.95 32.503c-.255 4.251 1.273 8.467 4.193 11.567 2.92 3.101 7.037 4.878 11.295 4.878h335.687c4.259 0 8.376-1.778 11.296-4.879 2.919-3.1 4.447-7.316 4.192-11.566l-1.95-32.503c6.093-2.095 10.49-7.87 10.49-14.664v-19.5c8.018 1.948 16.279 2.952 24.565 2.952 57.177 0 103.693-46.517 103.693-103.693v-112.227c-.001-30.655-24.941-55.597-55.598-55.597zm-88.89 207.079-9.601-160.015h98.491c4.705 0 8.532 3.828 8.532 8.532v112.226c0 31.225-25.404 56.629-56.629 56.629-15.41 0-30.139-6.31-40.793-17.372zm-44.052 41.422-7.033-161.164c-.181-4.139-3.687-7.342-7.82-7.166-4.138.18-7.346 3.682-7.166 7.82l7.004 160.51h-62.544l-1.322-80.798c-.067-4.142-3.498-7.426-7.622-7.376-4.142.068-7.444 3.48-7.376 7.622l1.318 80.553h-78.06l3.427-209.451h71.205l1.584 96.834c.067 4.1 3.412 7.377 7.497 7.377.042 0 .083 0 .125-.001 4.142-.068 7.444-3.48 7.376-7.622l-1.58-96.589h56.832l.737 16.875c.176 4.027 3.495 7.173 7.487 7.173.11 0 .222-.002.333-.007 4.138-.181 7.346-3.682 7.166-7.82l-.708-16.221h28.083l12.567 209.451zm-254.624-24.042c-4.135-.185-7.64 3.027-7.82 7.166l-.736 16.875h-31.511l12.567-209.451h28.084l-7.004 160.508c-.181 4.138 3.027 7.64 7.166 7.82.111.005.222.007.333.007 3.992 0 7.312-3.146 7.487-7.173l7.033-161.163h56.832l-3.427 209.451h-62.546l.708-16.221c.181-4.138-3.027-7.639-7.166-7.819zm-37.805-224.976c0-.285.231-.516.516-.516h320.645c.285 0 .516.231.516.516v24.049c0 .285-.231.516-.516.516h-203.107c-.025 0-.048-.004-.073-.005-.045 0-.088.005-.132.005h-117.333c-.285 0-.516-.231-.516-.516zm210.543-15.516-.542-33.097h54.427l1.445 33.097zm-15.002 0h-69.403l.542-33.097h68.319zm-84.406 0h-55.329l1.444-33.097h54.427zm194.976-32.611 1.957 32.611h-27.182l-1.445-33.097h26.155c.272.001.498.214.515.486zm-290.029-.485h26.154l-1.444 33.097h-27.182l1.957-32.611c.016-.273.242-.486.515-.486zm-23.462 385.644c-.153-.163-.143-.324-.14-.385l1.953-32.55h32.412l-1.444 33.097h-32.405c-.061.001-.223.001-.376-.162zm208.15-32.934.542 33.097h-80.946l.541-33.097zm79.049 0 1.444 33.097h-64.948l-.542-33.097zm-174.455 33.097h-64.949l1.444-33.097h64.046zm223.694-.163c-.153.163-.314.163-.375.163h-32.406l-1.444-33.097h32.412l1.953 32.55c.003.061.013.222-.14.384zm8.652-72.499v24.049c0 .285-.231.516-.516.516h-352.71c-.285 0-.516-.231-.516-.516v-24.049c0-.285.231-.516.516-.516h352.709c.048 0 .092.015.136.028.042.017.083.036.124.053.151.09.257.247.257.435zm128.258-96.194c0 48.906-39.788 88.693-88.694 88.693-13.475 0-26.36-2.927-38.349-8.697l-1.218-20.303c11.627 7.703 25.369 11.936 39.567 11.936 39.496 0 71.629-32.133 71.629-71.629v-112.225c0-12.976-10.557-23.532-23.532-23.532h-91.264c1.62-2.45 2.57-5.381 2.57-8.532v-8.533h88.694c22.385 0 40.597 18.212 40.597 40.597z" />
</svg>
