<svg enable-background="new 0 0 511.998 511.998" viewBox="0 0 511.998 511.998"
  xmlns="http://www.w3.org/2000/svg">
  <path
    d="m135.722 206.665c-66.397 0-120.987 50.555-127.375 115.273-.727 7.365 3.886 14.231 10.908 16.571l39.777 13.259c13.169 4.39 22.62-.823 24.881-9.865l10.72-42.879c5.342-21.368 24.541-36.358 46.567-36.358h182.641c12.73 0 24.939-5.057 33.941-14.059l17.941-17.941.55-24h-240.551z"
    fill="#000000" />
  <path
    d="m495.723 182.665h-336c-13.254 0-24 10.745-24 24s10.746 24 24 24h336c4.418 0 8-3.582 8-8v-32c0-4.418-3.582-8-8-8z"
    fill="#000000" />
  <path
    d="m184.273 206.665c-13.254 0-24-10.745-24-24h-.533c-10.036 0-19.364 6.117-22.597 15.618-5.714 16.789 6.612 32.382 22.579 32.382h320.55v-8c0-8.837-7.163-16-16-16z"
    fill="#000000" />
  <circle cx="199.72" cy="182.661" fill="#000000" r="16" />
  <path
    d="m11.614 303.796c-1.467 5.913-2.653 11.937-3.266 18.143-.727 7.365 3.886 14.231 10.908 16.571l39.777 13.259c13.169 4.39 22.62-.823 24.881-9.865l3.232-12.929z"
    fill="#000000" />
  <path
    d="m113.633 262.665c-24.584 0-46.294 16.034-53.524 39.531l-13.934 45.286 12.857 4.286c13.169 4.39 22.62-.823 24.881-9.865l10.72-42.879c5.342-21.368 24.541-36.358 46.567-36.358h-27.567z"
    fill="#000000" />
  <path
    d="m83.913 341.903 3.232-12.929-31.994-10.665-8.977 29.174 12.857 4.286c13.17 4.389 22.622-.824 24.882-9.866z"
    fill="#000000" />
  <path
    d="m496.473 174.936h-274.608c-3.14-9.318-11.955-16.05-22.319-16.05-10.363 0-19.178 6.732-22.318 16.05h-17.807c-5.84 0-11.312 1.6-16.009 4.375-21.214-5.229-24.596-21.421-24.754-22.249-.71-4.05-4.56-6.774-8.62-6.1-4.086.681-6.846 4.545-6.165 8.631.165.991 3.976 22.058 27.894 31.699-1.353 2.448-2.385 5.094-3.051 7.882-31.526 1.527-61.45 13.911-84.882 35.265-24.9 22.692-40.429 53.578-43.725 86.969-1.059 10.731 5.685 21.024 16.034 24.475l39.901 13.3c3.919 1.306 7.77 1.956 11.417 1.956 4.528 0 8.741-1.002 12.372-2.996 5.44-2.987 9.282-8.013 10.817-14.153l10.753-43.014c1.848-7.393 5.641-13.875 10.75-18.962-.235 1.548-.357 3.133-.357 4.746 0 17.41 14.165 31.575 31.575 31.575h24.075c17.411 0 31.575-14.165 31.575-31.575 0-6.076-1.729-11.754-4.715-16.575h129.747c14.864 0 28.839-5.789 39.35-16.3l15.801-15.8h117.269c8.561 0 15.525-6.965 15.525-15.525v-32.1c0-8.56-6.965-15.524-15.525-15.524zm-296.926-1.05c4.715 0 8.55 3.835 8.55 8.55s-3.835 8.55-8.55 8.55c-4.701 0-8.527-3.815-8.548-8.512 0-.013.002-.026.002-.039s-.002-.026-.002-.039c.021-4.695 3.846-8.51 8.548-8.51zm-126.932 171.108c-2.852 1.565-7.051 1.551-11.828-.042l-39.901-13.3c-3.767-1.255-6.228-4.944-5.85-8.771.306-3.096.737-6.167 1.276-9.209l61.344 20.448-1.558 6.233c-.524 2.099-1.696 3.661-3.483 4.641zm111.407-58.233c0 9.139-7.436 16.575-16.575 16.575h-24.075c-9.139 0-16.575-7.436-16.575-16.575 0-6.769 4.083-12.594 9.911-15.165 1.091 6.348 3.602 14.685 9.386 20.468 1.464 1.464 3.384 2.197 5.303 2.197s3.839-.732 5.303-2.197c2.929-2.929 2.929-7.678 0-10.606-2.647-2.647-4.155-7.197-4.971-11.272h15.718c9.139 0 16.575 7.436 16.575 16.575zm312.976-64.2c0 .29-.235.525-.525.525h-152.478c-4.142 0-7.5 3.358-7.5 7.5s3.358 7.5 7.5 7.5h13.996l-5.194 5.194c-7.678 7.678-17.886 11.906-28.744 11.906h-183.212c-25.583 0-47.784 17.334-53.989 42.153l-5.546 22.185-61.445-20.481c6.322-20.383 18.002-38.868 34.076-53.518 20.682-18.848 47.052-29.836 74.858-31.332 3.441 13.709 15.864 23.892 30.625 23.892h152.476c4.142 0 7.5-3.358 7.5-7.5s-3.358-7.5-7.5-7.5h-152.474c-9.14 0-16.575-7.436-16.575-16.575s7.436-16.575 16.575-16.575h17.807c3.14 9.318 11.955 16.05 22.318 16.05 10.364 0 19.179-6.732 22.319-16.05h274.608c.29 0 .525.235.525.525v32.101z" />
</svg>
