<svg enable-background="new 0 0 512 512" viewBox="0 0 512 512" xmlns="http://www.w3.org/2000/svg">
  <path
    d="m15.505 356.016c-4.421 0-8.005 3.584-8.005 8.005v16.009c0 4.421 3.584 8.005 8.005 8.005h144.086v-32.019z"
    fill="#000000" />
  <path
    d="m504.359 342.142-7.516-90.188h-133.413l-6.694 80.324-1.214 15.493c-.365 4.654-4.247 8.245-8.916 8.245h-195.02v24.014c0 8.842 7.168 16.009 16.009 16.009l209.138.001c4.484 0 8.95 1.144 12.678 3.636 23.583 15.763 56.738 18.475 89.91-3.756 15.604-10.456 26.598-35.061 25.038-53.778z"
    fill="#000000" />
  <path
    d="m401.79 309.989h69.987c8.842 0 16.009-7.168 16.009-16.009v-10.006l-124.967-24.68-6.082 72.985c-.021.245-.04.49-.058.734-.867 11.815-9.572 21.265-20.982 22.71v4.296c0 8.842-7.168 16.009-16.009 16.009h-168.102v4.002c0 8.842 7.168 16.009 16.009 16.009h204.566c7.457 0 14.646 2.274 21.086 6.034 12.069 7.046 26.324 10.79 41.635 9.825 4.855-.306 9.542-1.135 14.059-2.354-35.501-9.156-60.66-43.072-56.827-81.402l1.765-11.377c.606-3.899 3.964-6.776 7.911-6.776z"
    fill="#000000" />
  <path d="m370.795 251.954c-4.163 0-7.631 3.191-7.977 7.34l-2.057 24.679h138.75l-2.669-32.019z"
    fill="#000000" />
  <path
    d="m407.099 251.954h-43.669l-2.669 32.019h36.303l2.057-24.679c.348-4.149 3.815-7.34 7.978-7.34z"
    fill="#000000" />
  <path
    d="m511.713 329.656-6.524-78.288c-.324-3.887-3.574-6.877-7.474-6.877h-133.651c-3.9 0-7.15 2.99-7.474 6.877l-6.707 80.48-.062.797c-.673 9.175-7.779 16.093-16.529 16.093h-317.773c-8.557 0-15.519 6.962-15.519 15.519v16.038c0 8.557 6.962 15.519 15.519 15.519h134.687c4.317 4.911 10.638 8.019 17.675 8.019h204.93c5.789 0 11.637 1.698 17.383 5.047 12.404 7.23 26.386 10.989 40.73 10.989 1.725 0 3.458-.055 5.192-.164 21.398-1.35 41.052-11.205 55.341-27.75 14.749-17.077 22.132-39.785 20.256-62.299zm-496.194 51.159c-.286 0-.519-.233-.519-.519v-16.038c0-.286.233-.519.519-.519h128.824v16.557c0 .174.009.346.013.519zm143.824-.519v-16.557h17.076v25.095h-8.538c-4.708 0-8.538-3.83-8.538-8.538zm320.762 1.857c-11.632 13.469-27.589 21.489-44.933 22.583-13.163.826-26.107-2.217-37.423-8.814-7.955-4.637-16.578-7.088-24.937-7.088h-181.393v-25.095h141.874c16.696 0 30.233-12.895 31.49-30.008l3.512-42.163h80.254c4.142 0 7.5-3.358 7.5-7.5s-3.358-7.5-7.5-7.5h-79.004l1.422-17.076h119.848l1.423 17.076h-11.613c-4.142 0-7.5 3.358-7.5 7.5s3.358 7.5 7.5 7.5h12.863l3.278 39.334c1.542 18.523-4.53 37.203-16.661 51.251z" />
  <path
    d="m479.016 323.54c-.344-4.128-3.968-7.191-8.097-6.851-4.128.344-7.195 3.969-6.851 8.097l.732 8.779c.832 9.989-2.438 20.057-8.971 27.623-4.638 5.37-10.55 9.063-17.097 10.68-4.021.993-6.477 5.058-5.484 9.079.844 3.418 3.906 5.705 7.275 5.705.595 0 1.2-.072 1.803-.221 9.581-2.365 18.175-7.703 24.855-15.438 9.151-10.597 13.731-24.692 12.567-38.672z" />
  <path
    d="m416.99 179.856c0 12.648 5.358 19.341 9.664 24.719 3.701 4.622 6.374 7.961 6.374 15.345 0 4.142 3.358 7.5 7.5 7.5s7.5-3.358 7.5-7.5c0-12.648-5.359-19.342-9.665-24.72-3.7-4.622-6.374-7.961-6.374-15.344 0-7.394 2.674-10.737 6.376-15.364 4.305-5.381 9.662-12.079 9.662-24.734 0-12.661-5.356-19.362-9.661-24.747-3.703-4.631-6.377-7.978-6.377-15.38 0-4.142-3.358-7.5-7.5-7.5s-7.5 3.358-7.5 7.5c0 12.661 5.356 19.362 9.661 24.746 3.703 4.631 6.377 7.978 6.377 15.38 0 7.394-2.674 10.737-6.376 15.364-4.304 5.381-9.661 12.079-9.661 24.735z" />
  <path
    d="m457.552 187.347c2.381 0 4.505-1.111 5.88-2.843 5.424-6.781 16.671-20.868 16.671-44.749 0-9.701-1.865-18.845-5.544-27.18-1.673-3.79-6.101-5.505-9.89-3.833-3.79 1.672-5.505 6.1-3.833 9.89 2.831 6.415 4.267 13.521 4.267 21.124 0 18.565-8.318 29.044-13.338 35.32-1.07 1.297-1.713 2.959-1.713 4.771 0 4.142 3.358 7.5 7.5 7.5z" />
  <path
    d="m397.251 211.33c1.004 0 2.025-.203 3.004-.632 3.794-1.661 5.523-6.084 3.862-9.878-2.789-6.369-4.203-13.422-4.203-20.963 0-18.641 8.39-29.13 13.403-35.397.135-.169.264-.345.384-.526 1.666-2.498 1.673-5.799.031-8.313-2.265-3.467-6.913-4.444-10.38-2.178-.915.597-1.656 1.361-2.211 2.225-5.569 6.98-16.228 20.946-16.228 44.19 0 9.625 1.838 18.702 5.462 26.98 1.234 2.812 3.987 4.492 6.876 4.492z" />
</svg>
