<svg enable-background="new 0 0 512 512" viewBox="0 0 512 512" xmlns="http://www.w3.org/2000/svg">
  <path
    d="m332.153 231.952h-128.258c-57.553 0-104.21 46.656-104.21 104.21v168.338h336.677v-168.339c.001-57.553-46.655-104.209-104.209-104.209z"
    fill="#000000" />
  <path
    d="m238.699 349.655.528-.265 11.792 11.792c4.696 4.695 10.85 7.043 17.005 7.043s12.309-2.348 17.005-7.043l11.792-11.792.528.265c3.395 1.697 7.079 2.539 10.754 2.539 4.437 0 8.861-1.227 12.746-3.655 2.43-1.519 47.865-30.995 66.981-100.361-16.118-10.223-35.178-16.226-55.678-16.226h-128.257c-20.5 0-39.56 6.003-55.678 16.226 19.117 69.365 64.552 98.841 66.981 100.361 3.886 2.428 8.31 3.655 12.746 3.655 3.676 0 7.359-.842 10.755-2.539z"
    fill="#000000" />
  <path
    d="m348.186 272.032h-24.048v45.744c0 30.725-23.676 57.518-54.386 58.44-31.778.954-57.839-24.523-57.839-56.087v-48.097h-24.048c0 37.115-14.32 59.909-20.859 68.384-2.117 2.743-3.189 6.124-3.189 9.589v154.495h208.419v-154.495c0-3.465-1.072-6.846-3.189-9.589-6.542-8.475-20.861-31.269-20.861-68.384z"
    fill="#000000" />
  <g fill="#000000">
    <path
      d="m187.863 272.032c0 17.41-3.19 31.543-7.21 42.651 16.978 22.415 33.123 32.966 34.545 33.855 1.95 1.219 4.035 2.133 6.19 2.743-5.968-8.916-9.477-19.618-9.477-31.153v-48.097z" />
    <path
      d="m324.137 272.032v45.744c0 12.363-3.883 24.053-10.465 33.714 2.502-.596 4.935-1.549 7.179-2.952 1.422-.888 17.568-11.44 34.545-33.855-4.02-11.108-7.21-25.242-7.21-42.651z" />
    <path
      d="m171.831 360.21c-4.427 0-8.016 3.589-8.016 8.016v136.274h24.048v-128.258c0-8.854-7.178-16.032-16.032-16.032z" />
    <path
      d="m364.218 360.21c-8.854 0-16.032 7.178-16.032 16.032v128.258h24.048v-136.274c0-4.427-3.589-8.016-8.016-8.016z" />
  </g>
  <path
    d="m268.024 7.5c-57.553 0-104.21 46.656-104.21 104.21v72.145c0 104.21 64.129 88.177 64.129 88.177h80.161s64.129 16.032 64.129-88.177v-72.145c.001-57.554-46.655-104.21-104.209-104.21z"
    fill="#000000" />
  <path
    d="m232.445 141.212c37.342-8.215 85.829-24.008 135.003-54.413-16.494-52.507-73.408-95.982-134.288-72.935-42.505 16.091-69.347 58.409-69.347 103.858v66.133c0 5.931.264 11.595.656 17.115.22 2.804.494 5.499.818 8.092.048.445.105.879.155 1.322 9.973 74.771 62.5 61.649 62.5 61.649h3.699c-7.783-22.679-11.715-44.383-11.715-64.129v-51.073c.001-7.521 5.174-14.003 12.519-15.619z"
    fill="#000000" />
  <path
    d="m332.153 207.903h-128.258c-22.136 0-40.081-17.945-40.081-40.081v16.032c0 104.21 64.129 144.29 64.129 144.29l16.032-8.016 24.048 24.048 24.048-24.048 16.032 8.016s64.129-40.081 64.129-144.29v-16.032c.002 22.136-17.943 40.081-40.079 40.081z"
    fill="#000000" />
  <path
    d="m300.089 239.968h-64.129s0-3.589 0-8.016c0-13.282 10.767-24.048 24.048-24.048h16.032c13.282 0 24.048 10.767 24.048 24.048.001 4.427.001 8.016.001 8.016z"
    fill="#000000" />
  <path
    d="m203.895 207.903c-22.136 0-40.081-17.945-40.081-40.081v16.032c0 104.21 64.129 144.29 64.129 144.29l16.032-8.016 24.048 24.048c-32.065-48.097-48.097-96.194-48.097-136.274h-16.031z"
    fill="#000000" />
  <circle cx="312.11" cy="155.8" fill="#000000" r="28.06" />
  <path
    d="m115.718 103.694c-17.138 0-32.067 6.457-40.081 16.032 8.014 9.575 22.942 16.032 40.081 16.032s32.067-6.457 40.081-16.032c-8.015-9.575-22.943-16.032-40.081-16.032z"
    fill="#000000" />
  <path
    d="m144.534 70.584c-11.201-11.201-25.523-16.391-37.531-14.858-1.533 12.008 3.658 26.331 14.858 37.531s25.523 16.391 37.531 14.858c1.533-12.007-3.657-26.33-14.858-37.531z"
    fill="#000000" />
  <path
    d="m268.024 7.5c-57.553 0-104.21 46.656-104.21 104.21v16.032s98.26-.04 197.476-62.313c-17.056-34.301-52.358-57.929-93.266-57.929z"
    fill="#000000" />
  <path
    d="m349.844 47.031c-3.318-4.38-5.827-6.686-9.78-10.487-39.284 21.937-77.645 34.975-108.504 42.123-4.888 1.132-9.259-3.974-7.793-8.772 9.205-30.112 34.113-53.354 65.176-60.246-16.718-3.421-34.818-3.068-53.709 3.315-43.29 14.627-71.42 56.606-71.42 102.3v12.477s22.197-.023 56.113-6.708l-1.116-12.616c0-7.515 5.181-12.903 12.515-14.543 37.091-8.291 75.19-22.091 118.518-46.843z"
    fill="#000000" />
  <path
    d="m139.766 504.5h24.048v-140.282c0-6.641-5.383-12.024-12.024-12.024-6.641 0-12.024 5.383-12.024 12.024z"
    fill="#000000" />
  <path
    d="m372.234 504.5h24.048v-140.282c0-6.641-5.383-12.024-12.024-12.024-6.641 0-12.024 5.383-12.024 12.024z"
    fill="#000000" />
  <path
    d="m219.927 175.322c4.142 0 7.5-3.357 7.5-7.5v-8.016c0-4.143-3.358-7.5-7.5-7.5s-7.5 3.357-7.5 7.5v8.016c0 4.143 3.358 7.5 7.5 7.5z" />
  <path
    d="m276.041 256.516h-16.032c-4.142 0-7.5 3.358-7.5 7.5s3.358 7.5 7.5 7.5h16.032c4.142 0 7.5-3.358 7.5-7.5s-3.358-7.5-7.5-7.5z" />
  <path
    d="m374.644 232.83c3.142-14.46 5.09-30.753 5.09-48.975v-72.145c0-61.597-50.113-111.71-111.71-111.71-50.138 0-92.665 33.204-106.753 78.776-2.633-3.974-5.733-7.795-9.287-11.348-13.356-13.356-30.424-20.52-45.644-19.173-3.619.321-6.487 3.189-6.808 6.808-1.204 13.57 4.373 28.592 15.053 41.157-18.437.275-35.086 7.207-44.699 18.692-2.332 2.786-2.332 6.842 0 9.628 9.811 11.721 26.944 18.718 45.832 18.718 15.882 0 30.506-4.962 40.597-13.506v54.103c0 18.225 1.948 34.52 5.091 48.982-41.629 17.121-69.22 57.925-69.22 103.324v168.339c0 4.142 3.358 7.5 7.5 7.5s7.5-3.358 7.5-7.5v-168.339c0-38.594 23.027-73.359 57.978-88.636 4.257 14.352 9.632 26.534 15.176 36.65-.491 28.971-15.45 47.767-20.09 52.896-2.537 2.805-3.935 6.469-3.935 10.318v157.111c0 4.142 3.358 7.5 7.5 7.5s7.5-3.358 7.5-7.5v-.516h193.419v.516c0 4.142 3.358 7.5 7.5 7.5s7.5-3.358 7.5-7.5v-157.11c0-3.849-1.397-7.513-3.934-10.318-4.641-5.13-19.6-23.925-20.091-52.896 5.544-10.114 10.918-22.294 15.174-36.643 34.928 15.28 57.98 50.104 57.98 88.629v168.338c0 4.142 3.358 7.5 7.5 7.5s7.5-3.358 7.5-7.5v-168.339c0-45.319-27.616-86.211-69.219-103.331zm-42.491 150.912h32.581v25.08h-193.419v-25.08h96.709c26.765 0 49.705-16.624 59.082-40.081h34.615c1.09 1.357 2.092 2.52 2.954 3.473.036.04.058.138.058.256v21.353h-32.581c-4.142 0-7.5 3.357-7.5 7.5.001 4.141 3.359 7.499 7.501 7.499zm-160.838-36.352c0-.118.022-.216.058-.255.862-.954 1.864-2.116 2.955-3.474h34.615c3.913 9.789 10.183 18.385 18.115 25.081h-55.743zm33.096-29.871v2.61c0 2.895.212 5.739.589 8.532h-20.87c3.547-6.736 6.865-14.981 8.963-24.633 3.898 5.204 7.737 9.685 11.318 13.491zm63.613 51.223c-22.551 0-41.56-15.437-47.028-36.296 1.739 1.276 2.806 1.955 2.972 2.059 2.216 1.385 4.992 1.517 7.329.349l11.197-5.599 20.227 20.226c1.406 1.407 3.314 2.197 5.303 2.197s3.897-.791 5.303-2.197l20.226-20.226 11.197 5.599c2.337 1.168 5.113 1.036 7.329-.349.167-.104 1.234-.782 2.972-2.059-5.466 20.86-24.476 36.296-47.027 36.296zm63.025-40.081c.376-2.793.589-5.637.589-8.532v-2.61c3.581-3.805 7.421-8.286 11.317-13.49 2.098 9.652 5.417 17.896 8.963 24.633h-20.869zm3.414-38.517c-10.815 15.722-21.751 25.188-27.049 29.271l-11.987-5.993c-2.889-1.444-6.375-.878-8.657 1.405l-18.745 18.745-18.746-18.745c-1.44-1.44-3.359-2.197-5.306-2.197-1.138 0-2.286.259-3.352.792l-11.986 5.993c-5.308-4.09-16.24-13.555-27.051-29.271-19.792-28.77-27.208-60.749-29.445-86.925 8.429 7.569 19.562 12.185 31.755 12.185h29.268c-2.979 4.814-4.703 10.483-4.703 16.548v8.016c0 4.142 3.358 7.5 7.5 7.5h64.129c4.142 0 7.5-3.358 7.5-7.5v-8.016c0-6.065-1.725-11.734-4.703-16.548h29.268c12.201 0 23.341-4.621 31.771-12.199-3.46 40.964-17.458 69.492-29.461 86.939zm-163.148-155.142c5.56-.282 14.021-.898 24.753-2.231l45.123 17.967c.914.366 1.856.539 2.783.539 2.977 0 5.793-1.784 6.966-4.717 1.539-3.846-.332-8.211-4.178-9.749l-21.67-8.668c.093-.018.183-.035.276-.053 11.28-2.193 24.5-5.237 39.001-9.43l17.88 17.88c-3.594 5.554-5.691 12.165-5.691 19.259 0 19.606 15.95 35.556 35.556 35.556 7.094 0 13.704-2.097 19.259-5.691l12.536 12.537c-3.649 1.417-7.611 2.203-11.755 2.203h-128.259c-17.965 0-32.581-14.616-32.581-32.581v-32.821zm140.798 41.352c-11.334 0-20.556-9.222-20.556-20.556s9.222-20.556 20.556-20.556c11.335 0 20.557 9.222 20.557 20.556s-9.222 20.556-20.557 20.556zm-19.524 55.598v.516h-49.129v-.516c0-9.125 7.424-16.548 16.549-16.548h16.032c9.125-.001 16.548 7.423 16.548 16.548zm72.145-64.13c0 8.325-3.142 15.927-8.298 21.692l-14.457-14.457c3.594-5.555 5.691-12.165 5.691-19.259 0-19.606-15.951-35.556-35.557-35.556-7.094 0-13.704 2.097-19.259 5.691l-12.29-12.29c24.344-8.042 51.327-19.274 78.368-34.935 3.752 10.303 5.801 21.417 5.801 33.001v56.113zm-96.71-152.822c24.714 0 47.288 9.323 64.402 24.63-18.343 10.384-38.116 19.362-58.879 26.677-3.907 1.376-5.958 5.659-4.582 9.566 1.086 3.083 3.981 5.01 7.074 5.01.827 0 1.668-.138 2.492-.429 22.83-8.043 44.545-18.016 64.568-29.633 3.593 4.422 6.804 9.167 9.583 14.183-77.995 45.448-157.138 53.513-181.368 54.935v-8.229c.001-53.326 43.384-96.71 96.71-96.71zm-126.646 63.034c7.951 7.951 13.166 17.646 14.563 26.629-8.982-1.397-18.679-6.612-26.629-14.563s-13.166-17.647-14.563-26.63c8.981 1.398 18.678 6.613 26.629 14.564zm-25.66 50.224c-11.245 0-21.788-3.168-29.127-8.532 7.34-5.364 17.883-8.532 29.127-8.532s21.788 3.168 29.127 8.532c-7.34 5.364-17.883 8.532-29.127 8.532zm55.597 360.726v-25.081h152.823c4.142 0 7.5-3.358 7.5-7.5s-3.358-7.5-7.5-7.5h-152.823v-25.081h193.419v25.081h-8.53c-4.142 0-7.5 3.358-7.5 7.5s3.358 7.5 7.5 7.5h8.53v25.081z" />
  <path
    d="m227.937 94.578c.535 0 1.079-.058 1.623-.178 5.441-1.2 10.932-2.525 16.32-3.939 4.006-1.051 6.402-5.151 5.351-9.157-1.051-4.007-5.152-6.404-9.158-5.352-5.198 1.364-10.496 2.643-15.745 3.801-4.045.892-6.601 4.895-5.708 8.939.772 3.501 3.874 5.886 7.317 5.886z" />
</svg>
