<svg enable-background="new 0 0 512.001 512.001" viewBox="0 0 512.001 512.001"
  xmlns="http://www.w3.org/2000/svg">
  <path
    d="m59.337 7.501c47.139 48.043 114.48 61.77 114.48 61.77s-13.468 137.266 148.15 301.985l-26.937 27.453s-67.341-68.633-134.681-137.266c-134.682-137.266-101.012-253.942-101.012-253.942z"
    fill="#000000" />
  <path
    d="m173.816 69.271s-16.441-3.371-38.733-12.54c-15.174 72.722 37.317 160.558 90.517 228.995 2.227 2.865 2.266 6.82.067 9.707-4.36 5.723-8.894 11.494-13.757 17.349 19.678 20.055 45.48 47.556 59.119 61.457l10.03-10.222c3.195-3.256 8.491-3.157 11.606.176 10.861 11.62 14.97 15.664 17.966 18.614l11.334-11.552c-161.617-164.718-148.149-301.984-148.149-301.984z"
    fill="#000000" />
  <path
    d="m323.526 372.846c26.571 27.081 99.451 101.359 99.451 101.359 3.719 3.791 3.719 9.936 0 13.727l-13.468 13.726c-3.719 3.791-9.749 3.791-13.469 0l-99.707-101.62z"
    fill="#000000" />
  <path
    d="m319.516 407.498-8.302 7.707-14.881-15.167 27.192-27.192c2.797 2.851 99.451 101.359 99.451 101.359 3.719 3.791 3.719 9.936 0 13.727l-13.468 13.726c-.201.205-.467.278-.681.461l.98-.424c3.719-3.791 3.719-9.936 0-13.727 0 0-46.649-47.544-78.906-80.419-3.119-3.181-8.233-3.202-11.385-.051z"
    fill="#000000" />
  <path
    d="m452.662 7.501c-47.139 48.043-114.48 61.77-114.48 61.77s13.468 137.266-148.15 301.985l26.937 27.453s67.341-68.633 134.681-137.266c134.682-137.266 101.012-253.942 101.012-253.942z"
    fill="#000000" />
  <path
    d="m376.916 56.731c-22.292 9.169-38.733 12.54-38.733 12.54s13.468 137.266-148.15 301.985l11.334 11.552c17.519-17.252 201.457-201.918 175.549-326.077z"
    fill="#000000" />
  <path
    d="m188.473 372.846c-26.571 27.081-99.451 101.359-99.451 101.359-3.719 3.791-3.719 9.936 0 13.727l13.468 13.726c3.719 3.791 9.749 3.791 13.469 0l99.707-101.62z"
    fill="#000000" />
  <path
    d="m193.317 406.997 7.467 8.208 14.881-15.167-27.192-27.192c-2.797 2.851-99.451 101.359-99.451 101.359-3.719 3.791-3.719 9.936 0 13.727l13.468 13.726c.201.205.467.278.681.461l-1.998-2.036c-3.719-3.791-1.867-8.825 1.852-12.616 0 0 46.649-47.544 78.906-80.419 3.121-3.181 8.235-3.202 11.386-.051z"
    fill="#000000" />
  <path
    d="m357.004 266.696c31.238-31.837 56.101-65.27 73.897-99.37 14.313-27.425 24.117-55.346 29.14-82.987 8.632-47.511.19-77.656-.173-78.917-.739-2.562-2.784-4.539-5.369-5.192-2.587-.655-5.324.116-7.191 2.019-44.897 45.759-109.977 59.541-110.624 59.673-3.755.766-6.327 4.252-5.967 8.067 1.094 11.602-.313 44.768-13.465 87.254-12.271 39.637-37.682 96.868-90.212 161.463l-61.338-62.516c-67.847-69.149-91.18-132.551-98.807-173.563-4.675-25.142-4.286-46.445-2.68-60.191 38.653 34.021 85.142 48.384 101.839 52.698-.135 8.966.456 26.708 5.348 51.232 6.483 32.504 22.147 83.825 59.952 143.729 2.21 3.502 6.841 4.551 10.346 2.34 3.503-2.211 4.55-6.843 2.34-10.346-36.359-57.613-51.485-106.781-57.771-137.882-6.808-33.679-5.005-54.017-4.987-54.204.375-3.825-2.201-7.314-5.966-8.081-.651-.133-65.613-13.799-110.624-59.674-1.867-1.903-4.605-2.673-7.19-2.019-2.585.653-4.63 2.63-5.369 5.192-.363 1.26-8.806 31.405-.173 78.917 5.022 27.641 14.827 55.562 29.14 82.987 17.797 34.1 42.66 67.533 73.897 99.37l62.397 63.595c-8.469 9.931-17.584 20.018-27.391 30.225l-21.551-21.965c-2.901-2.957-7.65-3.001-10.606-.101-2.957 2.901-3.002 7.649-.101 10.606l21.783 22.201-70.302 71.651-1.38-1.407c-2.901-2.958-7.65-3.002-10.606-.101-2.957 2.901-3.002 7.649-.101 10.606l1.58 1.61-15.048 15.337c-6.555 6.681-6.555 17.551 0 24.232l13.468 13.727c3.221 3.282 7.514 5.09 12.088 5.09s8.867-1.808 12.09-5.093l15.157-15.466c11.373 9.184 25.349 14.184 40.093 14.184 17.292 0 33.544-6.856 45.758-19.305 23.378-23.826 24.988-61.551 4.854-87.307l56.867-57.959c8.684 10.123 17.879 20.233 27.441 30.173l-16.398 16.712c-5.224-5.437-12.555-13.058-13.868-14.372-2.928-2.929-7.677-2.931-10.606-.001-2.929 2.928-2.93 7.677-.001 10.606 1.189 1.189 8.34 8.621 14.256 14.779-20.183 25.757-18.588 63.522 4.808 87.368 12.215 12.448 28.465 19.304 45.758 19.304 14.741 0 28.715-4.997 40.086-14.179l15.166 15.464c3.221 3.282 7.514 5.09 12.088 5.09s8.867-1.808 12.087-5.09l13.468-13.727c6.555-6.681 6.555-17.551 0-24.232l-15.048-15.337 1.58-1.61c2.901-2.957 2.856-7.706-.101-10.606-2.955-2.9-7.705-2.856-10.606.101l-1.38 1.407-70.302-71.651 21.783-22.201c2.901-2.957 2.856-7.705-.101-10.606-2.956-2.901-7.704-2.855-10.606.101l-21.552 21.966c-9.567-9.957-18.749-20.081-27.404-30.211zm60.619 212.763c.857.873.857 2.348 0 3.221l-13.468 13.727c-.483.493-1.018.596-1.38.596-.364 0-.898-.103-1.38-.594l-15.046-15.342 16.426-16.741zm-25.356-25.843-16.424 16.739-53.461-54.511c-2.901-2.958-7.649-3.003-10.606-.103-2.958 2.9-3.003 7.649-.103 10.606l53.29 54.336c-8.497 6.453-18.752 9.943-29.529 9.943-13.232 0-25.681-5.26-35.051-14.81-19.438-19.811-19.438-52.044 0-71.854l21.583-21.997zm-104.46-195.197c19.297-32.394 34.127-65.274 44.078-97.726 13.005-42.416 14.267-72.821 14.066-85.559 16.704-4.316 63.186-18.68 101.833-52.695 1.607 13.752 1.995 35.053-2.679 60.19-7.627 41.011-30.96 104.413-98.807 173.563l-129.329 131.809-16.463-16.779c35.01-36.391 64.37-74.308 87.301-112.803zm-177.202 237.987c-.483.493-1.018.596-1.38.596-.364 0-.898-.103-1.381-.595l-13.468-13.727c-.856-.873-.856-2.348 0-3.221l14.849-15.134 16.42 16.735zm101.011-20.59c-9.371 9.55-21.819 14.81-35.051 14.81-10.781 0-21.04-3.493-29.54-9.952l54.43-55.54c2.899-2.958 2.852-7.707-.107-10.606-2.958-2.899-7.707-2.851-10.606.107l-54.597 55.71-16.414-16.729 70.302-71.651 21.583 21.997c19.437 19.81 19.437 52.044 0 71.854z" />
</svg>
