<svg enable-background="new 0 0 511.999 511.999" viewBox="0 0 511.999 511.999"
  xmlns="http://www.w3.org/2000/svg">
  <path
    d="m464.419 215.919h-16.032c-4.427 0-8.016 3.589-8.016 8.016v8.016h-37.763c-18.31 0-35.469-8.934-45.969-23.934l-22.605-32.293c-10.5-15.001-27.659-23.934-45.969-23.934h-248.5c-17.709 0-32.065 14.356-32.065 32.065v144.29c0 17.708 14.356 32.065 32.065 32.065h248.5c18.31 0 35.469-8.934 45.969-23.934l22.605-32.293c10.5-15.001 27.659-23.934 45.969-23.934h37.763v8.016c0 4.427 3.589 8.016 8.016 8.016h16.032c4.427 0 8.016-3.589 8.016-8.016v-64.129c0-4.428-3.588-8.017-8.016-8.017z"
    fill="#000000" />
  <path
    d="m464.419 270.799h-16.032c-4.427 0-8.016-2.761-8.016-6.166v-32.681h-16.032v18.499c0 4.427-3.589 8.016-8.016 8.016h-13.714c-18.31 0-35.469 6.872-45.969 18.411l-22.605 24.841c-10.5 11.539-27.659 18.411-45.969 18.411h-248.5c-17.709 0-32.065-11.043-32.065-24.665v32.681c0 17.708 14.355 32.065 32.065 32.065h248.5c18.31 0 35.469-8.934 45.969-23.934l22.605-32.293c10.501-15.001 27.66-23.934 45.97-23.934h37.762v8.016c0 4.427 3.589 8.016 8.016 8.016h16.032c4.427 0 8.016-3.589 8.016-8.016v-23.432c-.001 3.404-3.59 6.165-8.017 6.165z"
    fill="#000000" />
  <path d="m472.435 238.57v34.86l32.065 8.016v-50.892z" fill="#000000" />
  <path
    d="m265.015 274.371-26.025 42.323c-4.376 7.116-12.131 11.452-20.485 11.452h-83.919c-9.109 0-17.436-5.146-21.51-13.294l-17.402-34.803h32.067l16.032 16.032h56.113l16.032-16.032z"
    fill="#000000" />
  <path
    d="m236.215 320.129h-75.538c-5.528 0-10.666-2.848-13.595-7.535l-20.341-32.545h1.003-32.067l17.401 34.803c4.074 8.147 12.401 13.294 21.509 13.294h83.923c6.854-.002 13.193-3.037 17.705-8.017z"
    fill="#000000" />
  <path
    d="m509.116 226.04c-1.82-1.421-4.194-1.925-6.435-1.364l-22.746 5.687v-6.427c0-8.556-6.96-15.516-15.516-15.516h-16.032c-8.556 0-15.516 6.96-15.516 15.516v.516h-30.263c-15.849 0-30.737-7.751-39.825-20.735l-22.605-32.293c-11.893-16.99-31.375-27.133-52.114-27.133h-248.5c-21.815 0-39.564 17.748-39.564 39.564v144.29c0 21.816 17.749 39.564 39.564 39.564h248.5c20.739 0 40.221-10.143 52.114-27.133l22.605-32.293c9.088-12.983 23.976-20.735 39.825-20.735h30.263v.516c0 8.556 6.96 15.516 15.516 15.516h16.032c8.556 0 15.516-6.96 15.516-15.516v-6.427l22.746 5.687c.601.15 1.211.224 1.818.224 1.656 0 3.284-.548 4.616-1.588 1.82-1.421 2.884-3.602 2.884-5.912v-48.098c.001-2.308-1.063-4.489-2.883-5.91zm-44.18 62.024c0 .285-.231.516-.516.516h-16.032c-.285 0-.516-.231-.516-.516v-24.05c0-4.142-3.358-7.5-7.5-7.5s-7.5 3.358-7.5 7.5v8.534h-30.263c-20.739 0-40.221 10.143-52.113 27.133l-22.605 32.293c-9.089 12.983-23.977 20.735-39.826 20.735h-248.5c-13.545 0-24.565-11.019-24.565-24.564v-144.29c0-13.545 11.02-24.564 24.564-24.564h248.5c15.849 0 30.737 7.751 39.826 20.735l22.604 32.293c11.893 16.99 31.375 27.133 52.114 27.133h37.763c4.142 0 7.5-3.358 7.5-7.5v-8.016c0-.285.231-.516.516-.516h16.032c.285 0 .516.231.516.516v64.128zm32.064-17.623-17.064-4.266v-20.353l17.064-4.264z" />
  <path
    d="m356.47 242.014c-2.541-1.771-5.004-3.707-7.322-5.756-3.103-2.745-7.843-2.454-10.586.65-2.744 3.103-2.453 7.842.65 10.586 2.749 2.431 5.67 4.728 8.684 6.828 1.306.91 2.8 1.347 4.281 1.347 2.37 0 4.703-1.121 6.16-3.213 2.368-3.4 1.532-8.075-1.867-10.442z" />
  <path
    d="m313.912 189.812c-5.9-8.426-15.563-13.457-25.847-13.457-4.142 0-7.5 3.358-7.5 7.5s3.358 7.5 7.5 7.5c5.396 0 10.464 2.64 13.56 7.06l17.652 25.217c1.459 2.084 3.786 3.2 6.15 3.2 1.485 0 2.986-.44 4.294-1.356 3.394-2.375 4.219-7.052 1.843-10.445z" />
  <path
    d="m279.116 264.591-31.651 3.956v-29.095h8.533c4.142 0 7.5-3.358 7.5-7.5s-3.358-7.5-7.5-7.5h-8.533v-17.064h8.533c4.142 0 7.5-3.358 7.5-7.5s-3.358-7.5-7.5-7.5h-16.033c-4.142 0-7.5 3.358-7.5 7.5v24.564h-8.532c-4.142 0-7.5 3.358-7.5 7.5s3.358 7.5 7.5 7.5h8.532v30.97l-12.02 1.502c-5.167.646-10.04 3.029-13.722 6.711l-7.447 7.447c-1.611 1.611-3.753 2.499-6.033 2.499h-9.908v-33.097h16.548c4.142 0 7.5-3.358 7.5-7.5s-3.358-7.5-7.5-7.5h-16.548v-17.064h8.532c4.142 0 7.5-3.358 7.5-7.5s-3.358-7.5-7.5-7.5h-8.532v-17.064h8.532c4.142 0 7.5-3.358 7.5-7.5s-3.358-7.5-7.5-7.5h-16.032c-4.142 0-7.5 3.358-7.5 7.5v24.564h-8.532c-4.142 0-7.5 3.358-7.5 7.5s3.358 7.5 7.5 7.5h8.532v17.064h-16.548c-4.142 0-7.5 3.358-7.5 7.5s3.358 7.5 7.5 7.5h16.548v33.097h-17.924c-2.279 0-4.421-.888-6.033-2.499l-6.641-6.641c-2.962-2.961-6.575-5.031-10.515-6.085v-33.904h8.532c4.142 0 7.5-3.358 7.5-7.5s-3.358-7.5-7.5-7.5h-8.532v-17.064h8.532c4.142 0 7.5-3.358 7.5-7.5s-3.358-7.5-7.5-7.5h-16.032c-4.142 0-7.5 3.358-7.5 7.5v24.564h-8.532c-4.142 0-7.5 3.358-7.5 7.5s3.358 7.5 7.5 7.5h8.532v33.097h-24.563c-4.142 0-7.5 3.358-7.5 7.5s3.358 7.5 7.5 7.5h3.381l15.328 30.658c5.378 10.757 16.191 17.439 28.218 17.439h83.919c10.878 0 21.176-5.756 26.874-15.023l24.445-39.754 11.152-1.394c4.11-.514 7.026-4.262 6.512-8.372-.514-4.111-4.267-7.027-8.372-6.512zm-46.514 48.174c-2.989 4.861-8.391 7.88-14.097 7.88h-83.919c-6.309 0-11.98-3.505-14.802-9.147l-11.974-23.949h13.289c2.279 0 4.421.888 6.033 2.499l6.641 6.641c4.445 4.445 10.354 6.893 16.64 6.893h42.832c6.286 0 12.196-2.448 16.64-6.893l7.447-7.447c1.335-1.335 3.102-2.199 4.975-2.433l28.444-3.556z" />
  <path
    d="m87.659 320.646h-40.081c-4.142 0-7.5 3.358-7.5 7.5s3.358 7.5 7.5 7.5h40.081c4.142 0 7.5-3.358 7.5-7.5s-3.358-7.5-7.5-7.5z" />
</svg>
