<svg enable-background="new 0 0 512.001 512.001" viewBox="0 0 512.001 512.001"
  xmlns="http://www.w3.org/2000/svg">
  <path
    d="m264.183 504.5h-16.363c-4.362 0-7.924-3.488-8.014-7.849l-7.352-352.882c-.275-13.197 10.348-24.043 23.547-24.043 13.2 0 23.822 10.846 23.547 24.043l-7.352 352.882c-.09 4.361-3.651 7.849-8.013 7.849z"
    fill="#000000" />
  <path
    d="m279.214 159.807h-46.426l7.018 336.844c.091 4.361 3.652 7.849 8.015 7.849h16.363c.336 0 .623-.149.949-.189-2.736-.481-4.9-3.635-4.959-7.66l-3.751-248.667c-.065-4.473 3.542-8.133 8.015-8.133h13.275z"
    fill="#000000" />
  <path
    d="m296.082 39.565-16.032 16.032c-8.017-32.064-32.065-48.097-32.065-48.097-16.032 40.081-72.145 56.113-72.145 128.258 0 35.884 23.579 66.262 56.088 76.483l48.122.008c32.522-10.215 56.112-40.598 56.112-76.491 0-38.782-24.048-48.096-40.08-96.193z"
    fill="#000000" />
  <path
    d="m311.729 137.409c-7.631-49.748-56.625-81.75-56.625-81.75-16.032 24.048-47.199 32.002-54.823 81.708-.24 2.106-.392 4.238-.392 6.407 0 30.99 25.123 56.113 56.113 56.113s56.113-25.123 56.113-56.113c-.001-2.155-.15-4.273-.386-6.365z"
    fill="#000000" />
  <path
    d="m256.001 119.726c-13.2 0-23.822 10.846-23.547 24.043l1.503 72.151h44.089l1.503-72.151c.275-13.197-10.348-24.043-23.548-24.043z"
    fill="#000000" />
  <path
    d="m255.075 142.215c.294-9.282 4.325-17.197 10.056-20.637-2.808-1.183-5.888-1.851-9.13-1.851-13.2 0-23.822 10.846-23.547 24.043l1.503 72.151h22.111z"
    fill="#000000" />
  <path
    d="m343.662 135.759c0-24.2-8.605-38.053-18.57-54.095-7.154-11.516-15.262-24.568-21.896-44.471-.822-2.466-2.862-4.331-5.392-4.928-2.528-.597-5.188.158-7.026 1.996l-7.394 7.394c-10.665-26.428-30.293-39.765-31.239-40.395-1.881-1.254-4.227-1.593-6.385-.922-2.159.67-3.899 2.279-4.739 4.377-5.285 13.211-15.942 24.108-27.225 35.644-21.307 21.786-45.457 46.478-45.457 95.4 0 26.433 11.753 51.191 32.247 67.928 3.209 2.62 7.933 2.143 10.553-1.065s2.143-7.933-1.065-10.553c-16.991-13.875-26.735-34.4-26.735-56.31 0-42.807 20.935-64.211 41.18-84.912 9.891-10.113 19.343-19.777 26.002-31.429 7.017 6.766 17.63 19.516 22.251 37.998.655 2.622 2.67 4.688 5.274 5.409 2.606.722 5.395-.014 7.305-1.925l7.737-7.737c6.219 15.42 13.076 26.459 19.26 36.416 9.47 15.245 16.312 26.26 16.312 46.18 0 29.017-16.896 54.68-42.826 66.285l1.211-58.118c.175-8.415-2.972-16.361-8.861-22.375-5.889-6.013-13.768-9.325-22.185-9.325s-16.295 3.312-22.185 9.325c-5.89 6.014-9.037 13.96-8.861 22.375l7.352 352.882c.175 8.377 7.134 15.193 15.513 15.193h16.362c8.379 0 15.338-6.815 15.513-15.193l5.802-278.478c34.931-12.435 58.167-45.199 58.167-82.571zm-102.781 52.429 30.004 11.327-.186 8.905h-29.397zm3.652-56.142c3.044-3.108 7.117-4.82 11.468-4.82s8.424 1.712 11.468 4.82c3.044 3.109 4.671 7.217 4.581 11.567l-.833 39.994-30.672-11.579-.162-7.753 12.865-4.942c3.867-1.485 5.797-5.824 4.312-9.691-1.486-3.867-5.825-5.796-9.691-4.312l-7.819 3.003-.098-4.72c-.09-4.35 1.536-8.458 4.581-11.567zm19.649 364.954h-16.362c-.279 0-.51-.227-.516-.505l-5.689-273.075h28.772l-5.689 273.075c-.005.279-.237.505-.516.505z" />
  <path
    d="m237.16 85.71c12.072-11.648 18.249-21.365 18.506-21.773 2.206-3.5 1.157-8.119-2.339-10.331-3.496-2.211-8.126-1.169-10.344 2.323-.054.086-5.568 8.692-16.237 18.987-6.905 6.663-12.318 13.493-16.088 20.302-2.006 3.624-.695 8.188 2.929 10.194 1.151.637 2.397.94 3.626.94 2.639 0 5.199-1.396 6.568-3.869 3.046-5.503 7.548-11.146 13.379-16.773z" />
</svg>
